^D:\KENNETH FILES\SYSTEM\SERENDIPITY\SERENDIPITY-CMS\CMS_OFFLINE_04.17.15\ACCOUNT VERIFICATION\FRMLEDGERFILTER.RESX
^D:\KENNETH FILES\SYSTEM\SERENDIPITY\SERENDIPITY-CMS\CMS_OFFLINE_04.17.15\ACCOUNT VERIFICATION\FRMPRINT.RESX
^D:\KENNETH FILES\SYSTEM\SERENDIPITY\SERENDIPITY-CMS\CMS_OFFLINE_04.17.15\ACCOUNT VERIFICATION\FRMSOAFILTER.RESX
^D:\KENNETH FILES\SYSTEM\SERENDIPITY\SERENDIPITY-CMS\CMS_OFFLINE_04.17.15\ACCOUNT VERIFICATION\FRMVERIFICATION.RESX
^D:\KENNETH FILES\SYSTEM\SERENDIPITY\SERENDIPITY-CMS\CMS_OFFLINE_04.17.15\ACCOUNT VERIFICATION\FRMVERIFICATION_SEARCH.RESX
^D:\KENNETH FILES\SYSTEM\SERENDIPITY\SERENDIPITY-CMS\CMS_OFFLINE_04.17.15\CAPR\FRMCAPRINTRO.RESX
^D:\KENNETH FILES\SYSTEM\SERENDIPITY\SERENDIPITY-CMS\CMS_OFFLINE_04.17.15\CAPR\FRMCAPRSECI.RESX
^D:\KENNETH FILES\SYSTEM\SERENDIPITY\SERENDIPITY-CMS\CMS_OFFLINE_04.17.15\CAPR\FRMCAPRSECII.RESX
^D:\KENNETH FILES\SYSTEM\SERENDIPITY\SERENDIPITY-CMS\CMS_OFFLINE_04.17.15\CAPR\FRMCAPRSECIII.RESX
^D:\KENNETH FILES\SYSTEM\SERENDIPITY\SERENDIPITY-CMS\CMS_OFFLINE_04.17.15\CAPR\FRMCAPRSECIIIB.RESX
^D:\KENNETH FILES\SYSTEM\SERENDIPITY\SERENDIPITY-CMS\CMS_OFFLINE_04.17.15\CAPR\FRMCAPRSECIV.RESX
^D:\KENNETH FILES\SYSTEM\SERENDIPITY\SERENDIPITY-CMS\CMS_OFFLINE_04.17.15\CAPR\FRMCAPRVIEWER.RESX
^D:\KENNETH FILES\SYSTEM\SERENDIPITY\SERENDIPITY-CMS\CMS_OFFLINE_04.17.15\CLIENT UPLOADER\FRMCLIENTUPLOADER.RESX
^D:\KENNETH FILES\SYSTEM\SERENDIPITY\SERENDIPITY-CMS\CMS_OFFLINE_04.17.15\COMPANY INFORMATION\FRMCOMPANYINFOMASTER.RESX
^D:\KENNETH FILES\SYSTEM\SERENDIPITY\SERENDIPITY-CMS\CMS_OFFLINE_04.17.15\COMPUTATIONS\FRMAMORTOTHERPAYMENT.RESX
^D:\KENNETH FILES\SYSTEM\SERENDIPITY\SERENDIPITY-CMS\CMS_OFFLINE_04.17.15\COMPUTATIONS\FRMCOMPUTATIONSELECTACCT.RESX
^D:\KENNETH FILES\SYSTEM\SERENDIPITY\SERENDIPITY-CMS\CMS_OFFLINE_04.17.15\COMPUTATIONS\FRMCOMPUTATIONTABLELOAN.RESX
^D:\KENNETH FILES\SYSTEM\SERENDIPITY\SERENDIPITY-CMS\CMS_OFFLINE_04.17.15\COMPUTATIONS\FRMCOMPUTEREBATE.RESX
^D:\KENNETH FILES\SYSTEM\SERENDIPITY\SERENDIPITY-CMS\CMS_OFFLINE_04.17.15\COMPUTATIONS\FRMLOANBALCHECKER.RESX
^D:\KENNETH FILES\SYSTEM\SERENDIPITY\SERENDIPITY-CMS\CMS_OFFLINE_04.17.15\COMPUTATIONS\FRMLOANCOMPUTATIONSHOW001.RESX
^D:\KENNETH FILES\SYSTEM\SERENDIPITY\SERENDIPITY-CMS\CMS_OFFLINE_04.17.15\COMPUTATIONS\FRMOPSETUP.RESX
^D:\KENNETH FILES\SYSTEM\SERENDIPITY\SERENDIPITY-CMS\CMS_OFFLINE_04.17.15\COMPUTATIONS\FRMREBATEACCT.RESX
^D:\KENNETH FILES\SYSTEM\SERENDIPITY\SERENDIPITY-CMS\CMS_OFFLINE_04.17.15\COMPUTATIONS\FRMSELECTLOANNO.RESX
^D:\KENNETH FILES\SYSTEM\SERENDIPITY\SERENDIPITY-CMS\CMS_OFFLINE_04.17.15\EDITORS\FRMEDITOR_AMORTIZATION.RESX
^D:\KENNETH FILES\SYSTEM\SERENDIPITY\SERENDIPITY-CMS\CMS_OFFLINE_04.17.15\EMPLOYEE INFORMATION\FRMCONTRACT_REPORT.RESX
^D:\KENNETH FILES\SYSTEM\SERENDIPITY\SERENDIPITY-CMS\CMS_OFFLINE_04.17.15\EMPLOYEE INFORMATION\FRMCONTRACT_TOEXPIRE.RESX
^D:\KENNETH FILES\SYSTEM\SERENDIPITY\SERENDIPITY-CMS\CMS_OFFLINE_04.17.15\EMPLOYEE INFORMATION\FRMEMP_INFORMATION.RESX
^D:\KENNETH FILES\SYSTEM\SERENDIPITY\SERENDIPITY-CMS\CMS_OFFLINE_04.17.15\EMPLOYEE INFORMATION\FRMMEMBER_HISTORY.RESX
^D:\KENNETH FILES\SYSTEM\SERENDIPITY\SERENDIPITY-CMS\CMS_OFFLINE_04.17.15\INFO DOWNLOADER\FRMDOWNLOADER.RESX
^D:\KENNETH FILES\SYSTEM\SERENDIPITY\SERENDIPITY-CMS\CMS_OFFLINE_04.17.15\INVESTMENT_MODULE\FRMBROWSEINVESTMENTAPPROVER.RESX
^D:\KENNETH FILES\SYSTEM\SERENDIPITY\SERENDIPITY-CMS\CMS_OFFLINE_04.17.15\INVESTMENT_MODULE\FRMCOA.RESX
^D:\KENNETH FILES\SYSTEM\SERENDIPITY\SERENDIPITY-CMS\CMS_OFFLINE_04.17.15\INVESTMENT_MODULE\FRMEXISTINGINVESTMENT.RESX
^D:\KENNETH FILES\SYSTEM\SERENDIPITY\SERENDIPITY-CMS\CMS_OFFLINE_04.17.15\INVESTMENT_MODULE\FRMINVESTMENTAPPLICATION.RESX
^D:\KENNETH FILES\SYSTEM\SERENDIPITY\SERENDIPITY-CMS\CMS_OFFLINE_04.17.15\INVESTMENT_MODULE\FRMINVESTMENTAPPROVAL.RESX
^D:\KENNETH FILES\SYSTEM\SERENDIPITY\SERENDIPITY-CMS\CMS_OFFLINE_04.17.15\INVESTMENT_MODULE\FRMINVESTMENTAPPROVER.RESX
^D:\KENNETH FILES\SYSTEM\SERENDIPITY\SERENDIPITY-CMS\CMS_OFFLINE_04.17.15\INVESTMENT_MODULE\FRMINVESTMENTNO.RESX
^D:\KENNETH FILES\SYSTEM\SERENDIPITY\SERENDIPITY-CMS\CMS_OFFLINE_04.17.15\INVESTMENT_MODULE\FRMINVESTMENTRQTS.RESX
^D:\KENNETH FILES\SYSTEM\SERENDIPITY\SERENDIPITY-CMS\CMS_OFFLINE_04.17.15\INVESTMENT_MODULE\FRMINVESTMENTSETUP.RESX
^D:\KENNETH FILES\SYSTEM\SERENDIPITY\SERENDIPITY-CMS\CMS_OFFLINE_04.17.15\INVESTMENT_MODULE\FRMINVESTMENTTERMS.RESX
^D:\KENNETH FILES\SYSTEM\SERENDIPITY\SERENDIPITY-CMS\CMS_OFFLINE_04.17.15\INVESTMENT_MODULE\FRMINVESTMENT_CLIENT.RESX
^D:\KENNETH FILES\SYSTEM\SERENDIPITY\SERENDIPITY-CMS\CMS_OFFLINE_04.17.15\INVESTMENT_MODULE\FRMINVESTMENT_DOC.RESX
^D:\KENNETH FILES\SYSTEM\SERENDIPITY\SERENDIPITY-CMS\CMS_OFFLINE_04.17.15\INVESTMENT_MODULE\FRMINVESTMENT_ENTRY.RESX
^D:\KENNETH FILES\SYSTEM\SERENDIPITY\SERENDIPITY-CMS\CMS_OFFLINE_04.17.15\LOANUPLOADER\FRMAMORTGENERATOR.RESX
^D:\KENNETH FILES\SYSTEM\SERENDIPITY\SERENDIPITY-CMS\CMS_OFFLINE_04.17.15\LOANUPLOADER\FRMAMORTIZATIONUPLOADER.RESX
^D:\KENNETH FILES\SYSTEM\SERENDIPITY\SERENDIPITY-CMS\CMS_OFFLINE_04.17.15\LOANUPLOADER\FRMDOCISSUER.RESX
^D:\KENNETH FILES\SYSTEM\SERENDIPITY\SERENDIPITY-CMS\CMS_OFFLINE_04.17.15\LOANUPLOADER\FRMLOANFINALUPLOADER.RESX
^D:\KENNETH FILES\SYSTEM\SERENDIPITY\SERENDIPITY-CMS\CMS_OFFLINE_04.17.15\LOANUPLOADER\FRMLOANFORWARDBALANCEUPLOADER.RESX
^D:\KENNETH FILES\SYSTEM\SERENDIPITY\SERENDIPITY-CMS\CMS_OFFLINE_04.17.15\LOANUPLOADER\SUBFORMS\FRMADDLOAN.RESX
^D:\KENNETH FILES\SYSTEM\SERENDIPITY\SERENDIPITY-CMS\CMS_OFFLINE_04.17.15\LOANUPLOADER\SUBFORMS\FRMBROWSEFWDOC.RESX
^D:\KENNETH FILES\SYSTEM\SERENDIPITY\SERENDIPITY-CMS\CMS_OFFLINE_04.17.15\LOANUPLOADER\SUBFORMS\FRMSEARCHEXISTINGFB.RESX
^D:\KENNETH FILES\SYSTEM\SERENDIPITY\SERENDIPITY-CMS\CMS_OFFLINE_04.17.15\MEMBERSHIP SYSTEM\ADMIN\ACCOUNT SETUP\FRMACCOUNTCONFIGURATION.RESX
^D:\KENNETH FILES\SYSTEM\SERENDIPITY\SERENDIPITY-CMS\CMS_OFFLINE_04.17.15\MEMBERSHIP SYSTEM\ADMIN\DATA MIGRATION\DIVIDEND DISTRIBUTION\FRMUNDODIVIDENDUPLOADS.RESX
^D:\KENNETH FILES\SYSTEM\SERENDIPITY\SERENDIPITY-CMS\CMS_OFFLINE_04.17.15\MEMBERSHIP SYSTEM\ADMIN\DATA MIGRATION\DIVIDEND DISTRIBUTION\FRMUPLOADER_DIVIDENDDISTRIBUTION.RESX
^D:\KENNETH FILES\SYSTEM\SERENDIPITY\SERENDIPITY-CMS\CMS_OFFLINE_04.17.15\MEMBERSHIP SYSTEM\ADMIN\DATA MIGRATION\MEMBER MASTER UPLOADER\FRMMEMBERMASTERUPLODAER.RESX
^D:\KENNETH FILES\SYSTEM\SERENDIPITY\SERENDIPITY-CMS\CMS_OFFLINE_04.17.15\MEMBERSHIP SYSTEM\ADMIN\FRMABOUTSYSTEM.RESX
C:\WINDOWS\SYSTEM32\MSXML6R.DLL
^D:\KENNETH FILES\SYSTEM\SERENDIPITY\SERENDIPITY-CMS\CMS_OFFLINE_04.17.15\MEMBERSHIP SYSTEM\ADMIN\FRMADMIN_CHANGEDBCONNECTION.RESX
^D:\KENNETH FILES\SYSTEM\SERENDIPITY\SERENDIPITY-CMS\CMS_OFFLINE_04.17.15\MEMBERSHIP SYSTEM\ADMIN\FRMADMIN_CHANGEPASSWORD.RESX
^D:\KENNETH FILES\SYSTEM\SERENDIPITY\SERENDIPITY-CMS\CMS_OFFLINE_04.17.15\MEMBERSHIP SYSTEM\ADMIN\FRMADMIN_COMPANY_MASTER.RESX
^D:\KENNETH FILES\SYSTEM\SERENDIPITY\SERENDIPITY-CMS\CMS_OFFLINE_04.17.15\MEMBERSHIP SYSTEM\ADMIN\FRMADMIN_CREATEUSER.RESX
^D:\KENNETH FILES\SYSTEM\SERENDIPITY\SERENDIPITY-CMS\CMS_OFFLINE_04.17.15\MEMBERSHIP SYSTEM\ADMIN\FRMADMIN_FILEUPLOADER.RESX
^D:\KENNETH FILES\SYSTEM\SERENDIPITY\SERENDIPITY-CMS\CMS_OFFLINE_04.17.15\MEMBERSHIP SYSTEM\ADMIN\FRMADMIN_UPDATERIGHTS.RESX
^D:\KENNETH FILES\SYSTEM\SERENDIPITY\SERENDIPITY-CMS\CMS_OFFLINE_04.17.15\MEMBERSHIP SYSTEM\MASTERFILES\FRMBROWSEACCOUNTS.RESX
^D:\KENNETH FILES\SYSTEM\SERENDIPITY\SERENDIPITY-CMS\CMS_OFFLINE_04.17.15\MEMBERSHIP SYSTEM\MASTERFILES\FRMCOMAKER_SETTINGS.RESX
^D:\KENNETH FILES\SYSTEM\SERENDIPITY\SERENDIPITY-CMS\CMS_OFFLINE_04.17.15\MEMBERSHIP SYSTEM\MASTERFILES\FRMMASTERFILE_ACCOUNTNUMBER.RESX
^D:\KENNETH FILES\SYSTEM\SERENDIPITY\SERENDIPITY-CMS\CMS_OFFLINE_04.17.15\MEMBERSHIP SYSTEM\MASTERFILES\FRMMASTERFILE_ACCOUNTREGISTER.RESX
^D:\KENNETH FILES\SYSTEM\SERENDIPITY\SERENDIPITY-CMS\CMS_OFFLINE_04.17.15\MEMBERSHIP SYSTEM\MASTERFILES\FRMMASTERFILE_ACCOUNTS.RESX
^D:\KENNETH FILES\SYSTEM\SERENDIPITY\SERENDIPITY-CMS\CMS_OFFLINE_04.17.15\MEMBERSHIP SYSTEM\MASTERFILES\FRMMASTERFILE_CATEGORY.RESX
^D:\KENNETH FILES\SYSTEM\SERENDIPITY\SERENDIPITY-CMS\CMS_OFFLINE_04.17.15\MEMBERSHIP SYSTEM\MASTERFILES\FRMMASTERFILE_DEBITCREDIT.RESX
^D:\KENNETH FILES\SYSTEM\SERENDIPITY\SERENDIPITY-CMS\CMS_OFFLINE_04.17.15\MEMBERSHIP SYSTEM\MASTERFILES\FRMMASTERFILE_GROUP.RESX
^D:\KENNETH FILES\SYSTEM\SERENDIPITY\SERENDIPITY-CMS\CMS_OFFLINE_04.17.15\MEMBERSHIP SYSTEM\MASTERFILES\FRMMASTERFILE_LOANTYPE_PRIORITY.RESX
^D:\KENNETH FILES\SYSTEM\SERENDIPITY\SERENDIPITY-CMS\CMS_OFFLINE_04.17.15\MEMBERSHIP SYSTEM\MASTERFILES\FRMMASTERFILE_RANK.RESX
^D:\KENNETH FILES\SYSTEM\SERENDIPITY\SERENDIPITY-CMS\CMS_OFFLINE_04.17.15\MEMBERSHIP SYSTEM\MASTERFILES\FRMMASTERFILE_SUBGROUP.RESX
^D:\KENNETH FILES\SYSTEM\SERENDIPITY\SERENDIPITY-CMS\CMS_OFFLINE_04.17.15\MEMBERSHIP SYSTEM\MASTERFILES\FRMMASTERFILE_TYPE.RESX
^D:\KENNETH FILES\SYSTEM\SERENDIPITY\SERENDIPITY-CMS\CMS_OFFLINE_04.17.15\MEMBERSHIP SYSTEM\MASTERFILES\FRMPRIORITYMASTER.RESX
^D:\KENNETH FILES\SYSTEM\SERENDIPITY\SERENDIPITY-CMS\CMS_OFFLINE_04.17.15\MEMBERSHIP SYSTEM\TRANSACTIONS\CAPITAL SHARE\FRMCAPITALSHARE_DEPOSIT_AND_WITHDRAWAL.RESX
^D:\KENNETH FILES\SYSTEM\SERENDIPITY\SERENDIPITY-CMS\CMS_OFFLINE_04.17.15\MEMBERSHIP SYSTEM\TRANSACTIONS\CASH PAYMENT\CASHIER\FRMBROWSEBANK.RESX
^D:\KENNETH FILES\SYSTEM\SERENDIPITY\SERENDIPITY-CMS\CMS_OFFLINE_04.17.15\MEMBERSHIP SYSTEM\TRANSACTIONS\CASH PAYMENT\CASHIER\FRMBROWSEOR.RESX
^D:\KENNETH FILES\SYSTEM\SERENDIPITY\SERENDIPITY-CMS\CMS_OFFLINE_04.17.15\MEMBERSHIP SYSTEM\TRANSACTIONS\CASH PAYMENT\CASHIER\FRMCASHIER.RESX
^D:\KENNETH FILES\SYSTEM\SERENDIPITY\SERENDIPITY-CMS\CMS_OFFLINE_04.17.15\MEMBERSHIP SYSTEM\TRANSACTIONS\CASH PAYMENT\CASHIER\FRMLOANPAYMENT.RESX
^D:\KENNETH FILES\SYSTEM\SERENDIPITY\SERENDIPITY-CMS\CMS_OFFLINE_04.17.15\MEMBERSHIP SYSTEM\TRANSACTIONS\CASH PAYMENT\LOAN LEDGER\FRMLOANLEDGER.RESX
^D:\KENNETH FILES\SYSTEM\SERENDIPITY\SERENDIPITY-CMS\CMS_OFFLINE_04.17.15\MEMBERSHIP SYSTEM\TRANSACTIONS\CASH PAYMENT\NOTIFICATION\FRMPAYMENTNOTIFICATION.RESX
^D:\KENNETH FILES\SYSTEM\SERENDIPITY\SERENDIPITY-CMS\CMS_OFFLINE_04.17.15\MEMBERSHIP SYSTEM\TRANSACTIONS\LOAN MANAGER\LOAN PROCESSING\FMRLOAN_COMAKER.RESX
^D:\KENNETH FILES\SYSTEM\SERENDIPITY\SERENDIPITY-CMS\CMS_OFFLINE_04.17.15\MEMBERSHIP SYSTEM\TRANSACTIONS\LOAN MANAGER\LOAN PROCESSING\FRMADDCOMAKER.RESX
^D:\KENNETH FILES\SYSTEM\SERENDIPITY\SERENDIPITY-CMS\CMS_OFFLINE_04.17.15\MEMBERSHIP SYSTEM\TRANSACTIONS\LOAN MANAGER\LOAN PROCESSING\FRMADDITEM.RESX
^D:\KENNETH FILES\SYSTEM\SERENDIPITY\SERENDIPITY-CMS\CMS_OFFLINE_04.17.15\MEMBERSHIP SYSTEM\TRANSACTIONS\LOAN MANAGER\LOAN PROCESSING\FRMADMIN_LOANDELETE.RESX
^D:\KENNETH FILES\SYSTEM\SERENDIPITY\SERENDIPITY-CMS\CMS_OFFLINE_04.17.15\MEMBERSHIP SYSTEM\TRANSACTIONS\LOAN MANAGER\LOAN PROCESSING\FRMAMORTFORMULA.RESX
^D:\KENNETH FILES\SYSTEM\SERENDIPITY\SERENDIPITY-CMS\CMS_OFFLINE_04.17.15\MEMBERSHIP SYSTEM\TRANSACTIONS\LOAN MANAGER\LOAN PROCESSING\FRMBROWSECHECK.RESX
^D:\KENNETH FILES\SYSTEM\SERENDIPITY\SERENDIPITY-CMS\CMS_OFFLINE_04.17.15\MEMBERSHIP SYSTEM\TRANSACTIONS\LOAN MANAGER\LOAN PROCESSING\FRMBROWSELOANNO.RESX
^D:\KENNETH FILES\SYSTEM\SERENDIPITY\SERENDIPITY-CMS\CMS_OFFLINE_04.17.15\MEMBERSHIP SYSTEM\TRANSACTIONS\LOAN MANAGER\LOAN PROCESSING\FRMCHKVOUCHERENTRY.RESX
^D:\KENNETH FILES\SYSTEM\SERENDIPITY\SERENDIPITY-CMS\CMS_OFFLINE_04.17.15\MEMBERSHIP SYSTEM\TRANSACTIONS\LOAN MANAGER\LOAN PROCESSING\FRMCOMAKERHISTORY.RESX
^D:\KENNETH FILES\SYSTEM\SERENDIPITY\SERENDIPITY-CMS\CMS_OFFLINE_04.17.15\MEMBERSHIP SYSTEM\TRANSACTIONS\LOAN MANAGER\LOAN PROCESSING\FRMEXISTINGLOAN.RESX
^D:\KENNETH FILES\SYSTEM\SERENDIPITY\SERENDIPITY-CMS\CMS_OFFLINE_04.17.15\MEMBERSHIP SYSTEM\TRANSACTIONS\LOAN MANAGER\LOAN PROCESSING\FRMINTMETHODSETTING.RESX
^D:\KENNETH FILES\SYSTEM\SERENDIPITY\SERENDIPITY-CMS\CMS_OFFLINE_04.17.15\MEMBERSHIP SYSTEM\TRANSACTIONS\LOAN MANAGER\LOAN PROCESSING\FRMLOANDUPLICATORCHECK.RESX
^D:\KENNETH FILES\SYSTEM\SERENDIPITY\SERENDIPITY-CMS\CMS_OFFLINE_04.17.15\MEMBERSHIP SYSTEM\TRANSACTIONS\LOAN MANAGER\LOAN PROCESSING\FRMLOANFILT.RESX
^D:\KENNETH FILES\SYSTEM\SERENDIPITY\SERENDIPITY-CMS\CMS_OFFLINE_04.17.15\MEMBERSHIP SYSTEM\TRANSACTIONS\LOAN MANAGER\LOAN PROCESSING\FRMLOAN_AMORTIZATIONDETAILS.RESX
^D:\KENNETH FILES\SYSTEM\SERENDIPITY\SERENDIPITY-CMS\CMS_OFFLINE_04.17.15\MEMBERSHIP SYSTEM\TRANSACTIONS\LOAN MANAGER\LOAN PROCESSING\FRMLOAN_APPROVAL.RESX
^D:\KENNETH FILES\SYSTEM\SERENDIPITY\SERENDIPITY-CMS\CMS_OFFLINE_04.17.15\MEMBERSHIP SYSTEM\TRANSACTIONS\LOAN MANAGER\LOAN PROCESSING\FRMLOAN_APPROVERLIST.RESX
^D:\KENNETH FILES\SYSTEM\SERENDIPITY\SERENDIPITY-CMS\CMS_OFFLINE_04.17.15\MEMBERSHIP SYSTEM\TRANSACTIONS\LOAN MANAGER\LOAN PROCESSING\FRMOUTSTANDINGLOAN.RESX
^D:\KENNETH FILES\SYSTEM\SERENDIPITY\SERENDIPITY-CMS\CMS_OFFLINE_04.17.15\MEMBERSHIP SYSTEM\TRANSACTIONS\LOAN MANAGER\LOAN PROCESSING\FRMOVERPAYMENT.RESX
^D:\KENNETH FILES\SYSTEM\SERENDIPITY\SERENDIPITY-CMS\CMS_OFFLINE_04.17.15\MEMBERSHIP SYSTEM\TRANSACTIONS\LOAN MANAGER\LOAN PROCESSING\FRMVIEWACCTFILTER.RESX
^D:\KENNETH FILES\SYSTEM\SERENDIPITY\SERENDIPITY-CMS\CMS_OFFLINE_04.17.15\MEMBERSHIP SYSTEM\TRANSACTIONS\LOAN MANAGER\POLICIES\FRMLOAN_POLICY_POSITIONTYPE.RESX
^D:\KENNETH FILES\SYSTEM\SERENDIPITY\SERENDIPITY-CMS\CMS_OFFLINE_04.17.15\MEMBERSHIP SYSTEM\TRANSACTIONS\LOAN MANAGER\LOAN PROCESSING\FRMLOAN_APPLICATIONCOMPUTATION.RESX
^D:\KENNETH FILES\SYSTEM\SERENDIPITY\SERENDIPITY-CMS\CMS_OFFLINE_04.17.15\MEMBERSHIP SYSTEM\TRANSACTIONS\MEMBER MANAGER\FRMCONTRACTRATE.RESX
^D:\KENNETH FILES\SYSTEM\SERENDIPITY\SERENDIPITY-CMS\CMS_OFFLINE_04.17.15\MEMBERSHIP SYSTEM\TRANSACTIONS\MEMBER MANAGER\FRMMEMBER_AWARD.RESX
^D:\KENNETH FILES\SYSTEM\SERENDIPITY\SERENDIPITY-CMS\CMS_OFFLINE_04.17.15\MEMBERSHIP SYSTEM\TRANSACTIONS\MEMBER MANAGER\FRMMEMBER_BASICPAYLOGIN.RESX
^D:\KENNETH FILES\SYSTEM\SERENDIPITY\SERENDIPITY-CMS\CMS_OFFLINE_04.17.15\MEMBERSHIP SYSTEM\TRANSACTIONS\MEMBER MANAGER\FRMMEMBER_BRANCH.RESX
^D:\KENNETH FILES\SYSTEM\SERENDIPITY\SERENDIPITY-CMS\CMS_OFFLINE_04.17.15\MEMBERSHIP SYSTEM\TRANSACTIONS\MEMBER MANAGER\FRMMEMBER_BROTHER.RESX
^D:\KENNETH FILES\SYSTEM\SERENDIPITY\SERENDIPITY-CMS\CMS_OFFLINE_04.17.15\MEMBERSHIP SYSTEM\TRANSACTIONS\MEMBER MANAGER\FRMMEMBER_CLIENT.RESX
^D:\KENNETH FILES\SYSTEM\SERENDIPITY\SERENDIPITY-CMS\CMS_OFFLINE_04.17.15\MEMBERSHIP SYSTEM\TRANSACTIONS\MEMBER MANAGER\FRMMEMBER_DISCIPLINE.RESX
^D:\KENNETH FILES\SYSTEM\SERENDIPITY\SERENDIPITY-CMS\CMS_OFFLINE_04.17.15\MEMBERSHIP SYSTEM\TRANSACTIONS\MEMBER MANAGER\FRMMEMBER_EDUCATIONALINFO.RESX
^D:\KENNETH FILES\SYSTEM\SERENDIPITY\SERENDIPITY-CMS\CMS_OFFLINE_04.17.15\MEMBERSHIP SYSTEM\TRANSACTIONS\MEMBER MANAGER\FRMMEMBER_EMPLOYEELIST.RESX
^D:\KENNETH FILES\SYSTEM\SERENDIPITY\SERENDIPITY-CMS\CMS_OFFLINE_04.17.15\MEMBERSHIP SYSTEM\TRANSACTIONS\MEMBER MANAGER\FRMMEMBER_EMPLOYMENTHISTORY.RESX
^D:\KENNETH FILES\SYSTEM\SERENDIPITY\SERENDIPITY-CMS\CMS_OFFLINE_04.17.15\MEMBERSHIP SYSTEM\TRANSACTIONS\MEMBER MANAGER\FRMMEMBER_GOVEXAM.RESX
^D:\KENNETH FILES\SYSTEM\SERENDIPITY\SERENDIPITY-CMS\CMS_OFFLINE_04.17.15\MEMBERSHIP SYSTEM\TRANSACTIONS\MEMBER MANAGER\FRMMEMBER_JOBDESC.RESX
^D:\KENNETH FILES\SYSTEM\SERENDIPITY\SERENDIPITY-CMS\CMS_OFFLINE_04.17.15\MEMBERSHIP SYSTEM\TRANSACTIONS\MEMBER MANAGER\FRMMEMBER_LEGAL.RESX
^D:\KENNETH FILES\SYSTEM\SERENDIPITY\SERENDIPITY-CMS\CMS_OFFLINE_04.17.15\MEMBERSHIP SYSTEM\TRANSACTIONS\MEMBER MANAGER\FRMMEMBER_LIST.RESX
^D:\KENNETH FILES\SYSTEM\SERENDIPITY\SERENDIPITY-CMS\CMS_OFFLINE_04.17.15\MEMBERSHIP SYSTEM\TRANSACTIONS\MEMBER MANAGER\FRMMEMBER_MEDICAL.RESX
^D:\KENNETH FILES\SYSTEM\SERENDIPITY\SERENDIPITY-CMS\CMS_OFFLINE_04.17.15\MEMBERSHIP SYSTEM\TRANSACTIONS\MEMBER MANAGER\FRMMEMBER_ORGANIZATIONS.RESX
^D:\KENNETH FILES\SYSTEM\SERENDIPITY\SERENDIPITY-CMS\CMS_OFFLINE_04.17.15\MEMBERSHIP SYSTEM\TRANSACTIONS\MEMBER MANAGER\FRMMEMBER_PERFEVAL.RESX
^D:\KENNETH FILES\SYSTEM\SERENDIPITY\SERENDIPITY-CMS\CMS_OFFLINE_04.17.15\MEMBERSHIP SYSTEM\TRANSACTIONS\MEMBER MANAGER\FRMMEMBER_REQUIREMENTS.RESX
^D:\KENNETH FILES\SYSTEM\SERENDIPITY\SERENDIPITY-CMS\CMS_OFFLINE_04.17.15\MEMBERSHIP SYSTEM\TRANSACTIONS\MEMBER MANAGER\FRMMEMBER_SEARCHCLIENT.RESX
^D:\KENNETH FILES\SYSTEM\SERENDIPITY\SERENDIPITY-CMS\CMS_OFFLINE_04.17.15\MEMBERSHIP SYSTEM\TRANSACTIONS\MEMBER MANAGER\FRMMEMBER_SEARCHVENDOR.RESX
^D:\KENNETH FILES\SYSTEM\SERENDIPITY\SERENDIPITY-CMS\CMS_OFFLINE_04.17.15\MEMBERSHIP SYSTEM\TRANSACTIONS\MEMBER MANAGER\FRMMEMBER_SKILLS.RESX
^D:\KENNETH FILES\SYSTEM\SERENDIPITY\SERENDIPITY-CMS\CMS_OFFLINE_04.17.15\MEMBERSHIP SYSTEM\TRANSACTIONS\MEMBER MANAGER\FRMMEMBER_TRAININGS.RESX
^D:\KENNETH FILES\SYSTEM\SERENDIPITY\SERENDIPITY-CMS\CMS_OFFLINE_04.17.15\MEMBERSHIP SYSTEM\TRANSACTIONS\MEMBER MANAGER\FRMMEMBER_VENDORS.RESX
^D:\KENNETH FILES\SYSTEM\SERENDIPITY\SERENDIPITY-CMS\CMS_OFFLINE_04.17.15\MEMBERSHIP SYSTEM\TRANSACTIONS\MEMBER MANAGER\FRMPHOTOMAXIMIZE.RESX
^D:\KENNETH FILES\SYSTEM\SERENDIPITY\SERENDIPITY-CMS\CMS_OFFLINE_04.17.15\MEMBERSHIP SYSTEM\TRANSACTIONS\MEMBER MANAGER\FRMPREVIEWADDRESS.RESX
^D:\KENNETH FILES\SYSTEM\SERENDIPITY\SERENDIPITY-CMS\CMS_OFFLINE_04.17.15\MEMBERSHIP SYSTEM\TRANSACTIONS\MEMBERSHIP TERMINATION\FRMCHANGEINTERESTREFUND.RESX
^D:\KENNETH FILES\SYSTEM\SERENDIPITY\SERENDIPITY-CMS\CMS_OFFLINE_04.17.15\MEMBERSHIP SYSTEM\TRANSACTIONS\MEMBERSHIP TERMINATION\FRMMEMBERSHIPTERMINATION_DATEENTRY.RESX
^D:\KENNETH FILES\SYSTEM\SERENDIPITY\SERENDIPITY-CMS\CMS_OFFLINE_04.17.15\MEMBERSHIP SYSTEM\TRANSACTIONS\MEMBERSHIP TERMINATION\FRMMEMBERSHIPTERMINATION_PROGRESS.RESX
^D:\KENNETH FILES\SYSTEM\SERENDIPITY\SERENDIPITY-CMS\CMS_OFFLINE_04.17.15\MEMBERSHIP SYSTEM\TRANSACTIONS\SAVINGS AND DEPOSITS\DEPOSIT.RESX
^D:\KENNETH FILES\SYSTEM\SERENDIPITY\SERENDIPITY-CMS\CMS_OFFLINE_04.17.15\MEMBERSHIP SYSTEM\TRANSACTIONS\SAVINGS AND DEPOSITS\FRMBANKSETTINGS.RESX
^D:\KENNETH FILES\SYSTEM\SERENDIPITY\SERENDIPITY-CMS\CMS_OFFLINE_04.17.15\MEMBERSHIP SYSTEM\TRANSACTIONS\SAVINGS AND DEPOSITS\FRMCHECKFORCLEARING.RESX
^D:\KENNETH FILES\SYSTEM\SERENDIPITY\SERENDIPITY-CMS\CMS_OFFLINE_04.17.15\MEMBERSHIP SYSTEM\TRANSACTIONS\SAVINGS AND DEPOSITS\FRMMANUAL_INTEREST.RESX
^D:\KENNETH FILES\SYSTEM\SERENDIPITY\SERENDIPITY-CMS\CMS_OFFLINE_04.17.15\MEMBERSHIP SYSTEM\TRANSACTIONS\SAVINGS AND DEPOSITS\FRMWITHDRAWAL.RESX
^D:\KENNETH FILES\SYSTEM\SERENDIPITY\SERENDIPITY-CMS\CMS_OFFLINE_04.17.15\MEMBERSHIP SYSTEM\TRANSACTIONS\SAVINGS AND DEPOSITS\SAVING AND DEPOSIT NEW.RESX
^D:\KENNETH FILES\SYSTEM\SERENDIPITY\SERENDIPITY-CMS\CMS_OFFLINE_04.17.15\MEMBERSHIP SYSTEM\TRANSACTIONS\MEMBERSHIP TERMINATION\FRMMEMBERSWITHDRAWAL_JOURNALENTRIES.RESX
^D:\KENNETH FILES\SYSTEM\SERENDIPITY\SERENDIPITY-CMS\CMS_OFFLINE_04.17.15\MESSAGEBOX\FRMMSGBOX.RESX
^D:\KENNETH FILES\SYSTEM\SERENDIPITY\SERENDIPITY-CMS\CMS_OFFLINE_04.17.15\PAYROLLMIGRATOR\FRMCLIENTMIGRATOR.RESX
^D:\KENNETH FILES\SYSTEM\SERENDIPITY\SERENDIPITY-CMS\CMS_OFFLINE_04.17.15\REPORTS\FRMREPORT_CLIENT_V2.RESX
^D:\KENNETH FILES\SYSTEM\SERENDIPITY\SERENDIPITY-CMS\CMS_OFFLINE_04.17.15\REPORTS\FRMREPORT_LOANAPPLICATION.RESX
^D:\KENNETH FILES\SYSTEM\SERENDIPITY\SERENDIPITY-CMS\CMS_OFFLINE_04.17.15\REPORTS\FRMREPORT_LOANDETAILS.RESX
^D:\KENNETH FILES\SYSTEM\SERENDIPITY\SERENDIPITY-CMS\CMS_OFFLINE_04.17.15\REPORTS\FRMREPORT_SCHEDULEOFLOANSRELEASED.RESX
^D:\KENNETH FILES\SYSTEM\SERENDIPITY\SERENDIPITY-CMS\CMS_OFFLINE_04.17.15\REPORTS\FRMRPT_CAPITALSHARE.RESX
^D:\KENNETH FILES\SYSTEM\SERENDIPITY\SERENDIPITY-CMS\CMS_OFFLINE_04.17.15\REPORTS\FRMRPT_LOANSTATUS.RESX
^D:\KENNETH FILES\SYSTEM\SERENDIPITY\SERENDIPITY-CMS\CMS_OFFLINE_04.17.15\REPORTS\FRMRPT_MEMBERLIST.RESX
^D:\KENNETH FILES\SYSTEM\SERENDIPITY\SERENDIPITY-CMS\CMS_OFFLINE_04.17.15\REPORTS\FRMRPT_SCHEDULEOFLOANS_RECEIVABLE.RESX
^D:\KENNETH FILES\SYSTEM\SERENDIPITY\SERENDIPITY-CMS\CMS_OFFLINE_04.17.15\REPORTS\VOUCHER SIGNATORIES\FRMVOUCHERSIGNATORIES.RESX
^D:\KENNETH FILES\SYSTEM\SERENDIPITY\SERENDIPITY-CMS\CMS_OFFLINE_04.17.15\UNSORTED FORMS\FRMFINALSTEP.RESX
^D:\KENNETH FILES\SYSTEM\SERENDIPITY\SERENDIPITY-CMS\CMS_OFFLINE_04.17.15\MEMBERSHIP SYSTEM\TRANSACTIONS\MEMBERSHIP APPLICATION\FRMLISTOFRQTS.RESX
^D:\KENNETH FILES\SYSTEM\SERENDIPITY\SERENDIPITY-CMS\CMS_OFFLINE_04.17.15\MEMBERSHIP SYSTEM\TRANSACTIONS\MEMBERSHIP APPLICATION\FRMMEMBERSHIPREQUIREMENTS.RESX
^D:\KENNETH FILES\SYSTEM\SERENDIPITY\SERENDIPITY-CMS\CMS_OFFLINE_04.17.15\MEMBERSHIP SYSTEM\TRANSACTIONS\MEMBERSHIP APPLICATION\FRMNEWMEMBERSPROCESSING.RESX
^D:\KENNETH FILES\SYSTEM\SERENDIPITY\SERENDIPITY-CMS\CMS_OFFLINE_04.17.15\MEMBERSHIP SYSTEM\TRANSACTIONS\MEMBERSHIP APPLICATION\FRMRQTSFORAPPROVAL.RESX
^D:\KENNETH FILES\SYSTEM\SERENDIPITY\SERENDIPITY-CMS\CMS_OFFLINE_04.17.15\FRMMAIN.RESX
C:\WINDOWS\MICROSOFT.NET\FRAMEWORK\V2.0.50727\MSCORRC.DLL
D:\KENNETH FILES\SYSTEM\SERENDIPITY\SERENDIPITY-CMS\CMS_OFFLINE_04.17.15\BIN\DEBUG\ACCLEXPLORERBAR.DLL
D:\KENNETH FILES\SYSTEM\SERENDIPITY\SERENDIPITY-CMS\CMS_OFFLINE_04.17.15\BIN\DEBUG\BUTTONWITHLABEL.DLL
C:\WINDOWS\ASSEMBLY\GAC_MSIL\CRYSTALDECISIONS.CRYSTALREPORTS.ENGINE\13.0.2000.0__692FBEA5521E1304\CRYSTALDECISIONS.CRYSTALREPORTS.ENGINE.DLL
C:\WINDOWS\ASSEMBLY\GAC_MSIL\CRYSTALDECISIONS.REPORTSOURCE\13.0.2000.0__692FBEA5521E1304\CRYSTALDECISIONS.REPORTSOURCE.DLL
C:\WINDOWS\ASSEMBLY\GAC_MSIL\CRYSTALDECISIONS.SHARED\13.0.2000.0__692FBEA5521E1304\CRYSTALDECISIONS.SHARED.DLL
C:\WINDOWS\ASSEMBLY\GAC_MSIL\CRYSTALDECISIONS.WINDOWS.FORMS\13.0.2000.0__692FBEA5521E1304\CRYSTALDECISIONS.WINDOWS.FORMS.DLL
C:\WINDOWS\ASSEMBLY\GAC\EXTENSIBILITY\7.0.3300.0__B03F5F7F11D50A3A\EXTENSIBILITY.DLL
D:\KENNETH FILES\SYSTEM\SERENDIPITY\SERENDIPITY-CMS\CMS_OFFLINE_04.17.15\BIN\DEBUG\INTEROP.EXCEL.DLL
D:\KENNETH FILES\SYSTEM\SERENDIPITY\SERENDIPITY-CMS\CMS_OFFLINE_04.17.15\BIN\DEBUG\MICROSOFT.APPLICATIONBLOCKS.DATA.DLL
C:\WINDOWS\ASSEMBLY\GAC_32\SYSTEM.DATA\2.0.0.0__B77A5C561934E089\SYSTEM.DATA.DLL
C:\WINDOWS\ASSEMBLY\GAC_MSIL\POLICY.12.0.MICROSOFT.OFFICE.INTEROP.EXCEL\15.0.0.0__71E9BCE111E9429C\POLICY.12.0.MICROSOFT.OFFICE.INTEROP.EXCEL.CONFIG
C:\WINDOWS\ASSEMBLY\GAC_MSIL\MICROSOFT.OFFICE.INTEROP.EXCEL\15.0.0.0__71E9BCE111E9429C\MICROSOFT.OFFICE.INTEROP.EXCEL.DLL
C:\WINDOWS\ASSEMBLY\GAC_MSIL\MICROSOFT.VISUALBASIC.POWERPACKS.VS\10.0.0.0__B03F5F7F11D50A3A\MICROSOFT.VISUALBASIC.POWERPACKS.VS.DLL
D:\KENNETH FILES\SYSTEM\SERENDIPITY\SERENDIPITY-CMS\CMS_OFFLINE_04.17.15\BIN\DEBUG\MTGCCOMBOBOX.DLL
D:\KENNETH FILES\SYSTEM\SERENDIPITY\SERENDIPITY-CMS\CMS_OFFLINE_04.17.15\BIN\DEBUG\OPTIONALCONTROL.DLL
^D:\KENNETH FILES\SYSTEM\SERENDIPITY\SERENDIPITY-CMS\CMS_OFFLINE_04.17.15\MEMBERSHIP SYSTEM\TRANSACTIONS\CASH PAYMENT\FRMCASHPAYMENT_MAIN.RESX
^D:\KENNETH FILES\SYSTEM\SERENDIPITY\SERENDIPITY-CMS\CMS_OFFLINE_04.17.15\MEMBERSHIP SYSTEM\TRANSACTIONS\CASH PAYMENT\FRMCASHPAYMENT_RECEIVEPAYMENT.RESX
C:\WINDOWS\ASSEMBLY\GAC_MSIL\MICROSOFT.VISUALBASIC\8.0.0.0__B03F5F7F11D50A3A\MICROSOFT.VISUALBASIC.DLL
^D:\KENNETH FILES\SYSTEM\SERENDIPITY\SERENDIPITY-CMS\CMS_OFFLINE_04.17.15\CUSTOM CONTROLS\PANECAPTION.RESX
^D:\KENNETH FILES\SYSTEM\SERENDIPITY\SERENDIPITY-CMS\CMS_OFFLINE_04.17.15\CUSTOM CONTROLS\PANECAPTIONPIC.RESX
^D:\KENNETH FILES\SYSTEM\SERENDIPITY\SERENDIPITY-CMS\CMS_OFFLINE_04.17.15\CUSTOM CONTROLS\PANEPANEL.RESX
^D:\KENNETH FILES\SYSTEM\SERENDIPITY\SERENDIPITY-CMS\CMS_OFFLINE_04.17.15\MEMBERSHIP SYSTEM\TRANSACTIONS\MEMBER MANAGER\FRMMEMBER_BANKACCOUNT.RESX
^D:\KENNETH FILES\SYSTEM\SERENDIPITY\SERENDIPITY-CMS\CMS_OFFLINE_04.17.15\MEMBERSHIP SYSTEM\TRANSACTIONS\LOAN MANAGER\POLICIES\FRMLOAN_POLICY_APPROVERS_MASTER.RESX
^D:\KENNETH FILES\SYSTEM\SERENDIPITY\SERENDIPITY-CMS\CMS_OFFLINE_04.17.15\MEMBERSHIP SYSTEM\TRANSACTIONS\LOAN MANAGER\POLICIES\FRMLOAN_POLICY_MASTER.RESX
^D:\KENNETH FILES\SYSTEM\SERENDIPITY\SERENDIPITY-CMS\CMS_OFFLINE_04.17.15\MEMBERSHIP SYSTEM\ADMIN\DATA MIGRATION\LOAN MASTER UPLOADER\FRMLOANMASTERUPLOADER.RESX
^D:\KENNETH FILES\SYSTEM\SERENDIPITY\SERENDIPITY-CMS\CMS_OFFLINE_04.17.15\MEMBERSHIP SYSTEM\ADMIN\DATA MIGRATION\LOAN MASTER UPLOADER\FRMLOANMASTERUPLOADERPROCESS.RESX
^D:\KENNETH FILES\SYSTEM\SERENDIPITY\SERENDIPITY-CMS\CMS_OFFLINE_04.17.15\MEMBERSHIP SYSTEM\ADMIN\DATA MIGRATION\LOAN MASTER UPLOADER\FRMLOANMASTERVALIDATIONRESULT.RESX
^D:\KENNETH FILES\SYSTEM\SERENDIPITY\SERENDIPITY-CMS\CMS_OFFLINE_04.17.15\MEMBERSHIP SYSTEM\TRANSACTIONS\MEMBER MANAGER\FRMMEMBER_ADDMOBILE.RESX
^D:\KENNETH FILES\SYSTEM\SERENDIPITY\SERENDIPITY-CMS\CMS_OFFLINE_04.17.15\REPORTS\FRMRPT_ACCRUEDINTERESTINCOME.RESX
^D:\KENNETH FILES\SYSTEM\SERENDIPITY\SERENDIPITY-CMS\CMS_OFFLINE_04.17.15\MEMBERSHIP SYSTEM\TRANSACTIONS\INTEREST INCOME\FRMINTEREST_MAIN.RESX
^D:\KENNETH FILES\SYSTEM\SERENDIPITY\SERENDIPITY-CMS\CMS_OFFLINE_04.17.15\MEMBERSHIP SYSTEM\TRANSACTIONS\INTEREST INCOME\FRMINTEREST_ACCRUE.RESX
^D:\KENNETH FILES\SYSTEM\SERENDIPITY\SERENDIPITY-CMS\CMS_OFFLINE_04.17.15\MEMBERSHIP SYSTEM\TRANSACTIONS\INTEREST INCOME\FRMINTEREST_REPORTOPTION.RESX
^D:\KENNETH FILES\SYSTEM\SERENDIPITY\SERENDIPITY-CMS\CMS_OFFLINE_04.17.15\MEMBERSHIP SYSTEM\MASTERFILES\FRMMASTERFILE_LOANTYPE.RESX
^D:\KENNETH FILES\SYSTEM\SERENDIPITY\SERENDIPITY-CMS\CMS_OFFLINE_04.17.15\MEMBERSHIP SYSTEM\TRANSACTIONS\LOAN MANAGER\LOAN PROCESSING\FRMLOAN_PENALTIES.RESX
^D:\KENNETH FILES\SYSTEM\SERENDIPITY\SERENDIPITY-CMS\CMS_OFFLINE_04.17.15\UNSORTED FORMS\FRMDATABASETOEXCEL.RESX
^D:\KENNETH FILES\SYSTEM\SERENDIPITY\SERENDIPITY-CMS\CMS_OFFLINE_04.17.15\MEMBERSHIP SYSTEM\TRANSACTIONS\MEMBER MANAGER\FRMMEMBER_RELATIVES.RESX
^D:\KENNETH FILES\SYSTEM\SERENDIPITY\SERENDIPITY-CMS\CMS_OFFLINE_04.17.15\MEMBERSHIP SYSTEM\TRANSACTIONS\MEMBER MANAGER\FRMMEMBER_POSITION.RESX
^D:\KENNETH FILES\SYSTEM\SERENDIPITY\SERENDIPITY-CMS\CMS_OFFLINE_04.17.15\REPORTS\FRMRPT_TEMPLATE.RESX
^D:\KENNETH FILES\SYSTEM\SERENDIPITY\SERENDIPITY-CMS\CMS_OFFLINE_04.17.15\UNSORTED FORMS\FRMEMPLOYEE_BENEFITMASTER.RESX
^D:\KENNETH FILES\SYSTEM\SERENDIPITY\SERENDIPITY-CMS\CMS_OFFLINE_04.17.15\MEMBERSHIP SYSTEM\MASTERFILES\FRMORGCHART_EDIT.RESX
^D:\KENNETH FILES\SYSTEM\SERENDIPITY\SERENDIPITY-CMS\CMS_OFFLINE_04.17.15\UNSORTED FORMS\FRMEMPLOYEE_SUSPENDEDCASE.RESX
^D:\KENNETH FILES\SYSTEM\SERENDIPITY\SERENDIPITY-CMS\CMS_OFFLINE_04.17.15\UNSORTED FORMS\FRMEMPLOYEE_TYPE .RESX
C:\WINDOWS\FONTS\ARIAL.TTF
C:\WINDOWS\FONTS\ARIALBD.TTF
C:\WINDOWS\FONTS\ARIALI.TTF
C:\WINDOWS\FONTS\ARIALBI.TTF
C:\WINDOWS\FONTS\VERDANA.TTF
C:\WINDOWS\FONTS\VERDANAB.TTF
C:\WINDOWS\FONTS\VERDANAI.TTF
C:\WINDOWS\FONTS\VERDANAZ.TTF
^D:\KENNETH FILES\SYSTEM\SERENDIPITY\SERENDIPITY-CMS\CMS_OFFLINE_04.17.15\MEMBERSHIP SYSTEM\TRANSACTIONS\MEMBER MANAGER\FRMMEMBER_SEARCH.RESX
^D:\KENNETH FILES\SYSTEM\SERENDIPITY\SERENDIPITY-CMS\CMS_OFFLINE_04.17.15\UNSORTED FORMS\FRMEMPLOYEE_AWARDS.RESX
^D:\KENNETH FILES\SYSTEM\SERENDIPITY\SERENDIPITY-CMS\CMS_OFFLINE_04.17.15\UNSORTED FORMS\FRMEMPLOYEE_BENEFITS.RESX
^D:\KENNETH FILES\SYSTEM\SERENDIPITY\SERENDIPITY-CMS\CMS_OFFLINE_04.17.15\MEMBERSHIP SYSTEM\TRANSACTIONS\LOAN MANAGER\LOAN PROCESSING\FRMLOAN_CHANGEAMORTIZATION.RESX
^D:\KENNETH FILES\SYSTEM\SERENDIPITY\SERENDIPITY-CMS\CMS_OFFLINE_04.17.15\MEMBERSHIP SYSTEM\TRANSACTIONS\MEMBER MANAGER\FRMMEMBER_MASTER.RESX
^D:\KENNETH FILES\SYSTEM\SERENDIPITY\SERENDIPITY-CMS\CMS_OFFLINE_04.17.15\MEMBERSHIP SYSTEM\TRANSACTIONS\MEMBER MANAGER\FRMMEMBER_DEPENDENTS.RESX
^D:\KENNETH FILES\SYSTEM\SERENDIPITY\SERENDIPITY-CMS\CMS_OFFLINE_04.17.15\UNSORTED FORMS\FRMEMPLOYEE_JOBDESCRIPTION.RESX
^D:\KENNETH FILES\SYSTEM\SERENDIPITY\SERENDIPITY-CMS\CMS_OFFLINE_04.17.15\UNSORTED FORMS\FRMEMPLOYEE_MEDICAL.RESX
^D:\KENNETH FILES\SYSTEM\SERENDIPITY\SERENDIPITY-CMS\CMS_OFFLINE_04.17.15\UNSORTED FORMS\FRMEMPLOYEE_SKILLS.RESX
^D:\KENNETH FILES\SYSTEM\SERENDIPITY\SERENDIPITY-CMS\CMS_OFFLINE_04.17.15\MEMBERSHIP SYSTEM\TRANSACTIONS\MEMBER MANAGER\FRMMEMBER_LOANSEARCH.RESX
^D:\KENNETH FILES\SYSTEM\SERENDIPITY\SERENDIPITY-CMS\CMS_OFFLINE_04.17.15\MEMBERSHIP SYSTEM\TRANSACTIONS\LOAN MANAGER\LOAN PROCESSING\FRMLOAN_APPLICATIONMAIN.RESX
^D:\KENNETH FILES\SYSTEM\SERENDIPITY\SERENDIPITY-CMS\CMS_OFFLINE_04.17.15\MEMBERSHIP SYSTEM\TRANSACTIONS\LOAN MANAGER\POLICIES\FRMLOAN_POLICY_MAXTERMLIMIT.RESX
^D:\KENNETH FILES\SYSTEM\SERENDIPITY\SERENDIPITY-CMS\CMS_OFFLINE_04.17.15\MEMBERSHIP SYSTEM\MASTERFILES\FRMMASTERFILE_PAYROLLCALENDAR.RESX
^D:\KENNETH FILES\SYSTEM\SERENDIPITY\SERENDIPITY-CMS\CMS_OFFLINE_04.17.15\MEMBERSHIP SYSTEM\MASTERFILES\FRMMASTERFILE_PAYROLLCODE.RESX
^D:\KENNETH FILES\SYSTEM\SERENDIPITY\SERENDIPITY-CMS\CMS_OFFLINE_04.17.15\MEMBERSHIP SYSTEM\TRANSACTIONS\LOAN MANAGER\POLICIES\FRMLOAN_POLICY_APPROVERS_LIST.RESX
^D:\KENNETH FILES\SYSTEM\SERENDIPITY\SERENDIPITY-CMS\CMS_OFFLINE_04.17.15\MEMBERSHIP SYSTEM\TRANSACTIONS\LOAN MANAGER\POLICIES\FRMLOAN_POLICY_CSTENURELIMIT.RESX
^D:\KENNETH FILES\SYSTEM\SERENDIPITY\SERENDIPITY-CMS\CMS_OFFLINE_04.17.15\MEMBERSHIP SYSTEM\TRANSACTIONS\MEMBER MANAGER\FRMMEMBER_SOURCEOFINCOME.RESX
^D:\KENNETH FILES\SYSTEM\SERENDIPITY\SERENDIPITY-CMS\CMS_OFFLINE_04.17.15\STARTUPS\FRMSPLASHFORM.RESX
^D:\KENNETH FILES\SYSTEM\SERENDIPITY\SERENDIPITY-CMS\CMS_OFFLINE_04.17.15\MEMBERSHIP SYSTEM\TRANSACTIONS\MEMBER MANAGER\FRMMEMBER_STATUS.RESX
^D:\KENNETH FILES\SYSTEM\SERENDIPITY\SERENDIPITY-CMS\CMS_OFFLINE_04.17.15\MEMBERSHIP SYSTEM\MASTERFILES\FRMORGCHART_LEVELDEFINITION.RESX
^D:\KENNETH FILES\SYSTEM\SERENDIPITY\SERENDIPITY-CMS\CMS_OFFLINE_04.17.15\MEMBERSHIP SYSTEM\TRANSACTIONS\LOAN MANAGER\LOAN PROCESSING\FRMLOAN_CONFIRMLOANAPPLICATION.RESX
^D:\KENNETH FILES\SYSTEM\SERENDIPITY\SERENDIPITY-CMS\CMS_OFFLINE_04.17.15\MEMBERSHIP SYSTEM\TRANSACTIONS\CAPITAL SHARE\FRMCAPITALSHARE.RESX
^D:\KENNETH FILES\SYSTEM\SERENDIPITY\SERENDIPITY-CMS\CMS_OFFLINE_04.17.15\MEMBERSHIP SYSTEM\MASTERFILES\FRMMASTERFILE_PAGIBIG.RESX
^D:\KENNETH FILES\SYSTEM\SERENDIPITY\SERENDIPITY-CMS\CMS_OFFLINE_04.17.15\MEMBERSHIP SYSTEM\MASTERFILES\FRMMASTERFILE_PHILHEALTH.RESX
^D:\KENNETH FILES\SYSTEM\SERENDIPITY\SERENDIPITY-CMS\CMS_OFFLINE_04.17.15\MEMBERSHIP SYSTEM\MASTERFILES\FRMMASTERFILE_SSS.RESX
^D:\KENNETH FILES\SYSTEM\SERENDIPITY\SERENDIPITY-CMS\CMS_OFFLINE_04.17.15\MEMBERSHIP SYSTEM\TRANSACTIONS\SAVINGS AND DEPOSITS\FRMDEPOSITSANDSAVINGS.RESX
^D:\KENNETH FILES\SYSTEM\SERENDIPITY\SERENDIPITY-CMS\CMS_OFFLINE_04.17.15\MEMBERSHIP SYSTEM\TRANSACTIONS\LOAN MANAGER\LOAN PROCESSING\FRMLOAN_PAYMENTHISTORY.RESX
^D:\KENNETH FILES\SYSTEM\SERENDIPITY\SERENDIPITY-CMS\CMS_OFFLINE_04.17.15\MEMBERSHIP SYSTEM\TRANSACTIONS\MEMBERSHIP TERMINATION\FRMMEMBERSWITHDRAWAL.RESX
^D:\KENNETH FILES\SYSTEM\SERENDIPITY\SERENDIPITY-CMS\CMS_OFFLINE_04.17.15\MEMBERSHIP SYSTEM\TRANSACTIONS\MEMBERSHIP TERMINATION\FRMMEMBERSWITHDRAWALREPORT.RESX
^D:\KENNETH FILES\SYSTEM\SERENDIPITY\SERENDIPITY-CMS\CMS_OFFLINE_04.17.15\MEMBERSHIP SYSTEM\TRANSACTIONS\PAYROLLINTEGRATOR\FRMDOWNLOADUPLOADEXCEL.RESX
^D:\KENNETH FILES\SYSTEM\SERENDIPITY\SERENDIPITY-CMS\CMS_OFFLINE_04.17.15\MEMBERSHIP SYSTEM\TRANSACTIONS\LOAN MANAGER\LOAN PROCESSING\FRMLOAN_PROCESSING.RESX
^D:\KENNETH FILES\SYSTEM\SERENDIPITY\SERENDIPITY-CMS\CMS_OFFLINE_04.17.15\MEMBERSHIP SYSTEM\TRANSACTIONS\LOAN MANAGER\LOAN PROCESSING\FRMLOAN_MAXLOANCOMPUTATION.RESX
^D:\KENNETH FILES\SYSTEM\SERENDIPITY\SERENDIPITY-CMS\CMS_OFFLINE_04.17.15\MEMBERSHIP SYSTEM\TRANSACTIONS\LOAN MANAGER\LOAN PROCESSING\FRMLOAN_REPORTOPTIONS.RESX
^D:\KENNETH FILES\SYSTEM\SERENDIPITY\SERENDIPITY-CMS\CMS_OFFLINE_04.17.15\MEMBERSHIP SYSTEM\MASTERFILES\FRMMASTERFILE_LOANTYPE_REQUIREMENTS.RESX
^D:\KENNETH FILES\SYSTEM\SERENDIPITY\SERENDIPITY-CMS\CMS_OFFLINE_04.17.15\MEMBERSHIP SYSTEM\MASTERFILES\FRMMASTERFILE_LOANTERMS.RESX
^D:\KENNETH FILES\SYSTEM\SERENDIPITY\SERENDIPITY-CMS\CMS_OFFLINE_04.17.15\MEMBERSHIP SYSTEM\MASTERFILES\FRMMASTERFILE_NEWMEMBERREQUIREMENTS.RESX
^D:\KENNETH FILES\SYSTEM\SERENDIPITY\SERENDIPITY-CMS\CMS_OFFLINE_04.17.15\MEMBERSHIP SYSTEM\MASTERFILES\FRMMASTERFILE_PAYCODE.RESX
^D:\KENNETH FILES\SYSTEM\SERENDIPITY\SERENDIPITY-CMS\CMS_OFFLINE_04.17.15\MEMBERSHIP SYSTEM\MASTERFILES\FRMMASTERFILE_PAYINTEGRATORMASTER.RESX
^D:\KENNETH FILES\SYSTEM\SERENDIPITY\SERENDIPITY-CMS\CMS_OFFLINE_04.17.15\MEMBERSHIP SYSTEM\TRANSACTIONS\PAYROLLINTEGRATOR\FRMPAYROLLCODEVALIDATION.RESX
^D:\KENNETH FILES\SYSTEM\SERENDIPITY\SERENDIPITY-CMS\CMS_OFFLINE_04.17.15\MEMBERSHIP SYSTEM\TRANSACTIONS\PAYROLLINTEGRATOR\FRMPAYROLLINTEGRATIONRESULT.RESX
C:\WINDOWS\MICROSOFT.NET\FRAMEWORK\V2.0.50727\CONFIG\SECURITY.CONFIG
C:\WINDOWS\MICROSOFT.NET\FRAMEWORK\V2.0.50727\CONFIG\ENTERPRISESEC.CONFIG
^D:\KENNETH FILES\SYSTEM\SERENDIPITY\SERENDIPITY-CMS\CMS_OFFLINE_04.17.15\MEMBERSHIP SYSTEM\TRANSACTIONS\LOAN MANAGER\LOAN PROCESSING\FRMLOAN_PRETERMINATE.RESX
^D:\KENNETH FILES\SYSTEM\SERENDIPITY\SERENDIPITY-CMS\CMS_OFFLINE_04.17.15\MEMBERSHIP SYSTEM\TRANSACTIONS\LOAN MANAGER\FRMLOAN_FORWARDREQUIREMENTS.RESX
^D:\KENNETH FILES\SYSTEM\SERENDIPITY\SERENDIPITY-CMS\CMS_OFFLINE_04.17.15\MEMBERSHIP SYSTEM\TRANSACTIONS\PAYROLLINTEGRATOR\FRMUNSETTLEDLOANPAYMENTS.RESX
^D:\KENNETH FILES\SYSTEM\SERENDIPITY\SERENDIPITY-CMS\CMS_OFFLINE_04.17.15\MEMBERSHIP SYSTEM\MASTERFILES\FRMMASTERFILE_WITHOLDINGTAX.RESX
^D:\KENNETH FILES\SYSTEM\SERENDIPITY\SERENDIPITY-CMS\CMS_OFFLINE_04.17.15\FRMLOGIN.RESX
^D:\KENNETH FILES\SYSTEM\SERENDIPITY\SERENDIPITY-CMS\CMS_OFFLINE_04.17.15\REPORTS\FRMRPT_AGINGOFLOANS.RESX
^D:\KENNETH FILES\SYSTEM\SERENDIPITY\SERENDIPITY-CMS\CMS_OFFLINE_04.17.15\REPORTS\FRMRPT_AGINGOFLOANS_V2.RESX
^D:\KENNETH FILES\SYSTEM\SERENDIPITY\SERENDIPITY-CMS\CMS_OFFLINE_04.17.15\REPORTS\FRMRPT_AMORTIZATIONSETTLEMENTREPORT.RESX
^D:\KENNETH FILES\SYSTEM\SERENDIPITY\SERENDIPITY-CMS\CMS_OFFLINE_04.17.15\REPORTS\FRMRPT_CAPITALCONTRIBUTIONRPT.RESX
C:\WINDOWS\MICROSOFT.NET\FRAMEWORK\V2.0.50727\MSCORRC.DLL
D:\KENNETH FILES\SYSTEM\SERENDIPITY\SERENDIPITY-CMS\CMS_OFFLINE_04.17.15\BIN\DEBUG\MTGCCOMBOBOX.DLL
C:\WINDOWS\ASSEMBLY\GAC_MSIL\MICROSOFT.VISUALBASIC\8.0.0.0__B03F5F7F11D50A3A\MICROSOFT.VISUALBASIC.DLL
^D:\KENNETH FILES\SYSTEM\SERENDIPITY\SERENDIPITY-CMS\CMS_OFFLINE_04.17.15\REPORTS\FRMRPT_CONTRIBUTIONBALANCEMASTER.RESX
^D:\KENNETH FILES\SYSTEM\SERENDIPITY\SERENDIPITY-CMS\CMS_OFFLINE_04.17.15\REPORTS\FRMRPT_DIVIDENDSREPORT.RESX
^D:\KENNETH FILES\SYSTEM\SERENDIPITY\SERENDIPITY-CMS\CMS_OFFLINE_04.17.15\REPORTS\FRMRPT_LOANBALANCEMASTERFILE.RESX
^D:\KENNETH FILES\SYSTEM\SERENDIPITY\SERENDIPITY-CMS\CMS_OFFLINE_04.17.15\REPORTS\FRMRPT_LOANPRETERMINATIONSETTLEMENT.RESX
^D:\KENNETH FILES\SYSTEM\SERENDIPITY\SERENDIPITY-CMS\CMS_OFFLINE_04.17.15\REPORTS\FRMRPT_OFFICIALRECEIPT.RESX
^D:\KENNETH FILES\SYSTEM\SERENDIPITY\SERENDIPITY-CMS\CMS_OFFLINE_04.17.15\REPORTS\FRMRPT_PAYROLLSETTLEMENT.RESX
^D:\KENNETH FILES\SYSTEM\SERENDIPITY\SERENDIPITY-CMS\CMS_OFFLINE_04.17.15\REPORTS\FRMRPT_STATEMENTOFACCOUNTREPORT.RESX
^D:\KENNETH FILES\SYSTEM\SERENDIPITY\SERENDIPITY-CMS\CMS_OFFLINE_04.17.15\STARTUPS\FRMNOTIFICATIONS.RESX
^D:\KENNETH FILES\SYSTEM\SERENDIPITY\SERENDIPITY-CMS\CMS_OFFLINE_04.17.15\STARTUPS\FRMSTARTUP.RESX
^D:\KENNETH FILES\SYSTEM\SERENDIPITY\SERENDIPITY-CMS\CMS_OFFLINE_04.17.15\STARTUPS\FRMWAIT.RESX
^D:\KENNETH FILES\SYSTEM\SERENDIPITY\SERENDIPITY-CMS\CMS_OFFLINE_04.17.15\STARTUPS\FRMFLASHSCREEN.RESX
C:\WINDOWS\SYSTEM32\MSXML6R.DLL
^D:\KENNETH FILES\SYSTEM\SERENDIPITY\SERENDIPITY-CMS\CMS_OFFLINE_04.17.15\MY PROJECT\RESOURCES.RESX
D:\KENNETH FILES\SYSTEM\SERENDIPITY\SERENDIPITY-CMS\CMS_OFFLINE_04.17.15\RESOURCES\EXEC.PNG
D:\KENNETH FILES\SYSTEM\SERENDIPITY\SERENDIPITY-CMS\CMS_OFFLINE_04.17.15\RESOURCES\BUTTON_CANCEL.PNG
D:\KENNETH FILES\SYSTEM\SERENDIPITY\SERENDIPITY-CMS\CMS_OFFLINE_04.17.15\RESOURCES\ENTIRE NETWORK.ICO
D:\KENNETH FILES\SYSTEM\SERENDIPITY\SERENDIPITY-CMS\CMS_OFFLINE_04.17.15\RESOURCES\DB_ADD1.ICO
D:\KENNETH FILES\SYSTEM\SERENDIPITY\SERENDIPITY-CMS\CMS_OFFLINE_04.17.15\RESOURCES\FLOPPY.PNG
D:\KENNETH FILES\SYSTEM\SERENDIPITY\SERENDIPITY-CMS\CMS_OFFLINE_04.17.15\RESOURCES\DESK.GIF
D:\KENNETH FILES\SYSTEM\SERENDIPITY\SERENDIPITY-CMS\CMS_OFFLINE_04.17.15\RESOURCES\EXIT17.PNG
D:\KENNETH FILES\SYSTEM\SERENDIPITY\SERENDIPITY-CMS\CMS_OFFLINE_04.17.15\RESOURCES\AGT_RELOAD.PNG
D:\KENNETH FILES\SYSTEM\SERENDIPITY\SERENDIPITY-CMS\CMS_OFFLINE_04.17.15\RESOURCES\WBABL013.GIF
D:\KENNETH FILES\SYSTEM\SERENDIPITY\SERENDIPITY-CMS\CMS_OFFLINE_04.17.15\RESOURCES\UP24.PNG
D:\KENNETH FILES\SYSTEM\SERENDIPITY\SERENDIPITY-CMS\CMS_OFFLINE_04.17.15\RESOURCES\MEN.GIF
D:\KENNETH FILES\SYSTEM\SERENDIPITY\SERENDIPITY-CMS\CMS_OFFLINE_04.17.15\RESOURCES\EXIT2.ICO
D:\KENNETH FILES\SYSTEM\SERENDIPITY\SERENDIPITY-CMS\CMS_OFFLINE_04.17.15\RESOURCES\POST_ADD.PNG
D:\KENNETH FILES\SYSTEM\SERENDIPITY\SERENDIPITY-CMS\CMS_OFFLINE_04.17.15\RESOURCES\WBBUT016.GIF
D:\KENNETH FILES\SYSTEM\SERENDIPITY\SERENDIPITY-CMS\CMS_OFFLINE_04.17.15\RESOURCES\NEW3.GIF
D:\KENNETH FILES\SYSTEM\SERENDIPITY\SERENDIPITY-CMS\CMS_OFFLINE_04.17.15\RESOURCES\VISTA_ICONS_091.ICO
D:\KENNETH FILES\SYSTEM\SERENDIPITY\SERENDIPITY-CMS\CMS_OFFLINE_04.17.15\RESOURCES\BUTTON_CANCEL.ICO
D:\KENNETH FILES\SYSTEM\SERENDIPITY\SERENDIPITY-CMS\CMS_OFFLINE_04.17.15\RESOURCES\FINANCIAL-SERVICES.ICO
D:\KENNETH FILES\SYSTEM\SERENDIPITY\SERENDIPITY-CMS\CMS_OFFLINE_04.17.15\RESOURCES\VIEW_RIGHT.ICO
D:\KENNETH FILES\SYSTEM\SERENDIPITY\SERENDIPITY-CMS\CMS_OFFLINE_04.17.15\RESOURCES\FLOPPYDISK1_BLUE.GIF
D:\KENNETH FILES\SYSTEM\SERENDIPITY\SERENDIPITY-CMS\CMS_OFFLINE_04.17.15\RESOURCES\NEWS.PNG
D:\KENNETH FILES\SYSTEM\SERENDIPITY\SERENDIPITY-CMS\CMS_OFFLINE_04.17.15\RESOURCES\VIEWMAG+.PNG
D:\KENNETH FILES\SYSTEM\SERENDIPITY\SERENDIPITY-CMS\CMS_OFFLINE_04.17.15\RESOURCES\FOLDER_OPEN_BLUE.GIF
D:\KENNETH FILES\SYSTEM\SERENDIPITY\SERENDIPITY-CMS\CMS_OFFLINE_04.17.15\RESOURCES\PEN.GIF
D:\KENNETH FILES\SYSTEM\SERENDIPITY\SERENDIPITY-CMS\CMS_OFFLINE_04.17.15\RESOURCES\WRITE1.GIF
D:\KENNETH FILES\SYSTEM\SERENDIPITY\SERENDIPITY-CMS\CMS_OFFLINE_04.17.15\RESOURCES\IMAGES.JPG
D:\KENNETH FILES\SYSTEM\SERENDIPITY\SERENDIPITY-CMS\CMS_OFFLINE_04.17.15\RESOURCES\WINDOWS-8-WALLPAPER-PLANET.JPG
D:\KENNETH FILES\SYSTEM\SERENDIPITY\SERENDIPITY-CMS\CMS_OFFLINE_04.17.15\RESOURCES\PICC COPY.JPG
D:\KENNETH FILES\SYSTEM\SERENDIPITY\SERENDIPITY-CMS\CMS_OFFLINE_04.17.15\RESOURCES\LOGINIMAGES\EXIT.JPG
D:\KENNETH FILES\SYSTEM\SERENDIPITY\SERENDIPITY-CMS\CMS_OFFLINE_04.17.15\RESOURCES\PRIVATEQUEUE.ICO
D:\KENNETH FILES\SYSTEM\SERENDIPITY\SERENDIPITY-CMS\CMS_OFFLINE_04.17.15\RESOURCES\DOC_PEN.GIF
D:\KENNETH FILES\SYSTEM\SERENDIPITY\SERENDIPITY-CMS\CMS_OFFLINE_04.17.15\RESOURCES\EXIT.ICO
D:\KENNETH FILES\SYSTEM\SERENDIPITY\SERENDIPITY-CMS\CMS_OFFLINE_04.17.15\RESOURCES\LOGINIMAGES\BTNLOGIN.JPG
D:\KENNETH FILES\SYSTEM\SERENDIPITY\SERENDIPITY-CMS\CMS_OFFLINE_04.17.15\RESOURCES\ADMINISTRATOR.ICO
D:\KENNETH FILES\SYSTEM\SERENDIPITY\SERENDIPITY-CMS\CMS_OFFLINE_04.17.15\RESOURCES\MYDOCUMENTS_BLUE.GIF
D:\KENNETH FILES\SYSTEM\SERENDIPITY\SERENDIPITY-CMS\CMS_OFFLINE_04.17.15\RESOURCES\RELOAD.ICO
D:\KENNETH FILES\SYSTEM\SERENDIPITY\SERENDIPITY-CMS\CMS_OFFLINE_04.17.15\RESOURCES\GLOBE.ICO
D:\KENNETH FILES\SYSTEM\SERENDIPITY\SERENDIPITY-CMS\CMS_OFFLINE_04.17.15\RESOURCES\MOUNTAIN.BMP
D:\KENNETH FILES\SYSTEM\SERENDIPITY\SERENDIPITY-CMS\CMS_OFFLINE_04.17.15\RESOURCES\NEW-YEAR-RESOLUTION-CARTOON-11.JPG
D:\KENNETH FILES\SYSTEM\SERENDIPITY\SERENDIPITY-CMS\CMS_OFFLINE_04.17.15\RESOURCES\RUN.ICO
D:\KENNETH FILES\SYSTEM\SERENDIPITY\SERENDIPITY-CMS\CMS_OFFLINE_04.17.15\RESOURCES\FIND2.GIF
D:\KENNETH FILES\SYSTEM\SERENDIPITY\SERENDIPITY-CMS\CMS_OFFLINE_04.17.15\RESOURCES\BACKGROUND.PNG
D:\KENNETH FILES\SYSTEM\SERENDIPITY\SERENDIPITY-CMS\CMS_OFFLINE_04.17.15\RESOURCES\EDITPASTE.ICO
D:\KENNETH FILES\SYSTEM\SERENDIPITY\SERENDIPITY-CMS\CMS_OFFLINE_04.17.15\RESOURCES\LOGINIMAGES\CMS INTERFACE2.JPG
D:\KENNETH FILES\SYSTEM\SERENDIPITY\SERENDIPITY-CMS\CMS_OFFLINE_04.17.15\RESOURCES\EDIT.ICO
D:\KENNETH FILES\SYSTEM\SERENDIPITY\SERENDIPITY-CMS\CMS_OFFLINE_04.17.15\RESOURCES\CHECK.ICO
D:\KENNETH FILES\SYSTEM\SERENDIPITY\SERENDIPITY-CMS\CMS_OFFLINE_04.17.15\RESOURCES\DOC_PEN1.GIF
D:\KENNETH FILES\SYSTEM\SERENDIPITY\SERENDIPITY-CMS\CMS_OFFLINE_04.17.15\RESOURCES\SAVE2.GIF
D:\KENNETH FILES\SYSTEM\SERENDIPITY\SERENDIPITY-CMS\CMS_OFFLINE_04.17.15\RESOURCES\EDIT_ADD.ICO
D:\KENNETH FILES\SYSTEM\SERENDIPITY\SERENDIPITY-CMS\CMS_OFFLINE_04.17.15\RESOURCES\X.GIF
D:\KENNETH FILES\SYSTEM\SERENDIPITY\SERENDIPITY-CMS\CMS_OFFLINE_04.17.15\RESOURCES\EDITENTRY.PNG
D:\KENNETH FILES\SYSTEM\SERENDIPITY\SERENDIPITY-CMS\CMS_OFFLINE_04.17.15\RESOURCES\TOOLBAR --áREGULAR --áPUBLIC.ICO
D:\KENNETH FILES\SYSTEM\SERENDIPITY\SERENDIPITY-CMS\CMS_OFFLINE_04.17.15\RESOURCES\IMAGES (36)1.JPG
D:\KENNETH FILES\SYSTEM\SERENDIPITY\SERENDIPITY-CMS\CMS_OFFLINE_04.17.15\RESOURCES\DOCUMENT.ICO
D:\KENNETH FILES\SYSTEM\SERENDIPITY\SERENDIPITY-CMS\CMS_OFFLINE_04.17.15\RESOURCES\LOADING19.GIF
D:\KENNETH FILES\SYSTEM\SERENDIPITY\SERENDIPITY-CMS\CMS_OFFLINE_04.17.15\RESOURCES\IMAGES (14)1.JPG
D:\KENNETH FILES\SYSTEM\SERENDIPITY\SERENDIPITY-CMS\CMS_OFFLINE_04.17.15\RESOURCES\FILES.ICO
D:\KENNETH FILES\SYSTEM\SERENDIPITY\SERENDIPITY-CMS\CMS_OFFLINE_04.17.15\RESOURCES\LOADINGDATA.GIF
D:\KENNETH FILES\SYSTEM\SERENDIPITY\SERENDIPITY-CMS\CMS_OFFLINE_04.17.15\RESOURCES\DB_ADD.ICO
D:\KENNETH FILES\SYSTEM\SERENDIPITY\SERENDIPITY-CMS\CMS_OFFLINE_04.17.15\RESOURCES\FIND1.GIF
D:\KENNETH FILES\SYSTEM\SERENDIPITY\SERENDIPITY-CMS\CMS_OFFLINE_04.17.15\RESOURCES\ADD1.ICO
D:\KENNETH FILES\SYSTEM\SERENDIPITY\SERENDIPITY-CMS\CMS_OFFLINE_04.17.15\RESOURCES\COINS.PNG
D:\KENNETH FILES\SYSTEM\SERENDIPITY\SERENDIPITY-CMS\CMS_OFFLINE_04.17.15\RESOURCES\PRINTPREVIEW.PNG
D:\KENNETH FILES\SYSTEM\SERENDIPITY\SERENDIPITY-CMS\CMS_OFFLINE_04.17.15\RESOURCES\ALERT241.PNG
D:\KENNETH FILES\SYSTEM\SERENDIPITY\SERENDIPITY-CMS\CMS_OFFLINE_04.17.15\RESOURCES\LOADING13.GIF
D:\KENNETH FILES\SYSTEM\SERENDIPITY\SERENDIPITY-CMS\CMS_OFFLINE_04.17.15\RESOURCES\CASH-IN-HAND.PNG
D:\KENNETH FILES\SYSTEM\SERENDIPITY\SERENDIPITY-CMS\CMS_OFFLINE_04.17.15\RESOURCES\DELETE3.GIF
D:\KENNETH FILES\SYSTEM\SERENDIPITY\SERENDIPITY-CMS\CMS_OFFLINE_04.17.15\RESOURCES\CAMERA.ICO
D:\KENNETH FILES\SYSTEM\SERENDIPITY\SERENDIPITY-CMS\CMS_OFFLINE_04.17.15\RESOURCES\AJAX_LOADER.GIF
D:\KENNETH FILES\SYSTEM\SERENDIPITY\SERENDIPITY-CMS\CMS_OFFLINE_04.17.15\RESOURCES\FILE.GIF
D:\KENNETH FILES\SYSTEM\SERENDIPITY\SERENDIPITY-CMS\CMS_OFFLINE_04.17.15\RESOURCES\BOX_CLOSED.GIF
D:\KENNETH FILES\SYSTEM\SERENDIPITY\SERENDIPITY-CMS\CMS_OFFLINE_04.17.15\RESOURCES\HOMENET.ICO
D:\KENNETH FILES\SYSTEM\SERENDIPITY\SERENDIPITY-CMS\CMS_OFFLINE_04.17.15\RESOURCES\STOP.ICO
D:\KENNETH FILES\SYSTEM\SERENDIPITY\SERENDIPITY-CMS\CMS_OFFLINE_04.17.15\RESOURCES\EDITPASTE1.ICO
D:\KENNETH FILES\SYSTEM\SERENDIPITY\SERENDIPITY-CMS\CMS_OFFLINE_04.17.15\RESOURCES\PHOTO.JPG
D:\KENNETH FILES\SYSTEM\SERENDIPITY\SERENDIPITY-CMS\CMS_OFFLINE_04.17.15\RESOURCES\POSTAGE-STAMP.ICO
D:\KENNETH FILES\SYSTEM\SERENDIPITY\SERENDIPITY-CMS\CMS_OFFLINE_04.17.15\RESOURCES\EDIT.GIF
D:\KENNETH FILES\SYSTEM\SERENDIPITY\SERENDIPITY-CMS\CMS_OFFLINE_04.17.15\RESOURCES\APPLY.PNG
D:\KENNETH FILES\SYSTEM\SERENDIPITY\SERENDIPITY-CMS\CMS_OFFLINE_04.17.15\RESOURCES\DB_COMIT.PNG
D:\KENNETH FILES\SYSTEM\SERENDIPITY\SERENDIPITY-CMS\CMS_OFFLINE_04.17.15\RESOURCES\WBAOB0261.GIF
D:\KENNETH FILES\SYSTEM\SERENDIPITY\SERENDIPITY-CMS\CMS_OFFLINE_04.17.15\RESOURCES\PAPERBOOK.GIF
D:\KENNETH FILES\SYSTEM\SERENDIPITY\SERENDIPITY-CMS\CMS_OFFLINE_04.17.15\RESOURCES\UNDO_GREEN.PNG
D:\KENNETH FILES\SYSTEM\SERENDIPITY\SERENDIPITY-CMS\CMS_OFFLINE_04.17.15\RESOURCES\KTIMER.ICO
D:\KENNETH FILES\SYSTEM\SERENDIPITY\SERENDIPITY-CMS\CMS_OFFLINE_04.17.15\RESOURCES\AGT_RELOAD1.PNG
D:\KENNETH FILES\SYSTEM\SERENDIPITY\SERENDIPITY-CMS\CMS_OFFLINE_04.17.15\RESOURCES\FOLDER - HOME.ICO
D:\KENNETH FILES\SYSTEM\SERENDIPITY\SERENDIPITY-CMS\CMS_OFFLINE_04.17.15\RESOURCES\TRASH.PNG
D:\KENNETH FILES\SYSTEM\SERENDIPITY\SERENDIPITY-CMS\CMS_OFFLINE_04.17.15\RESOURCES\TAB_NEW.ICO
D:\KENNETH FILES\SYSTEM\SERENDIPITY\SERENDIPITY-CMS\CMS_OFFLINE_04.17.15\RESOURCES\APPROVAL(1).ICO
D:\KENNETH FILES\SYSTEM\SERENDIPITY\SERENDIPITY-CMS\CMS_OFFLINE_04.17.15\RESOURCES\SHELL32_DLL_ICO938_ICO_ICO1.ICO
D:\KENNETH FILES\SYSTEM\SERENDIPITY\SERENDIPITY-CMS\CMS_OFFLINE_04.17.15\RESOURCES\DOWNLOAD (19).JPG
D:\KENNETH FILES\SYSTEM\SERENDIPITY\SERENDIPITY-CMS\CMS_OFFLINE_04.17.15\RESOURCES\OK.ICO
D:\KENNETH FILES\SYSTEM\SERENDIPITY\SERENDIPITY-CMS\CMS_OFFLINE_04.17.15\RESOURCES\FLOPPYDISK_GRAY.GIF
D:\KENNETH FILES\SYSTEM\SERENDIPITY\SERENDIPITY-CMS\CMS_OFFLINE_04.17.15\RESOURCES\NOTE03.ICO
D:\KENNETH FILES\SYSTEM\SERENDIPITY\SERENDIPITY-CMS\CMS_OFFLINE_04.17.15\RESOURCES\CASH.PNG
D:\KENNETH FILES\SYSTEM\SERENDIPITY\SERENDIPITY-CMS\CMS_OFFLINE_04.17.15\RESOURCES\IMG_ELOAD.PNG
D:\KENNETH FILES\SYSTEM\SERENDIPITY\SERENDIPITY-CMS\CMS_OFFLINE_04.17.15\RESOURCES\LOGINIMAGES\CC.JPG
D:\KENNETH FILES\SYSTEM\SERENDIPITY\SERENDIPITY-CMS\CMS_OFFLINE_04.17.15\RESOURCES\IMAGES (37)1.JPG
D:\KENNETH FILES\SYSTEM\SERENDIPITY\SERENDIPITY-CMS\CMS_OFFLINE_04.17.15\RESOURCES\EXIT1.ICO
D:\KENNETH FILES\SYSTEM\SERENDIPITY\SERENDIPITY-CMS\CMS_OFFLINE_04.17.15\RESOURCES\QUICK_RESTART.ICO
D:\KENNETH FILES\SYSTEM\SERENDIPITY\SERENDIPITY-CMS\CMS_OFFLINE_04.17.15\RESOURCES\23.ICO
D:\KENNETH FILES\SYSTEM\SERENDIPITY\SERENDIPITY-CMS\CMS_OFFLINE_04.17.15\RESOURCES\DOCUMENT.GIF
D:\KENNETH FILES\SYSTEM\SERENDIPITY\SERENDIPITY-CMS\CMS_OFFLINE_04.17.15\RESOURCES\VISTA_ICONS_09.ICO
D:\KENNETH FILES\SYSTEM\SERENDIPITY\SERENDIPITY-CMS\CMS_OFFLINE_04.17.15\RESOURCES\HISTORY.GIF
D:\KENNETH FILES\SYSTEM\SERENDIPITY\SERENDIPITY-CMS\CMS_OFFLINE_04.17.15\RESOURCES\CASH_REGISTER.PNG
D:\KENNETH FILES\SYSTEM\SERENDIPITY\SERENDIPITY-CMS\CMS_OFFLINE_04.17.15\RESOURCES\EVENTLOGERROR.ICO
D:\KENNETH FILES\SYSTEM\SERENDIPITY\SERENDIPITY-CMS\CMS_OFFLINE_04.17.15\RESOURCES\RECYCLE2.ICO
D:\KENNETH FILES\SYSTEM\SERENDIPITY\SERENDIPITY-CMS\CMS_OFFLINE_04.17.15\RESOURCES\NOLOGO.PNG
D:\KENNETH FILES\SYSTEM\SERENDIPITY\SERENDIPITY-CMS\CMS_OFFLINE_04.17.15\RESOURCES\OPENFOLDER.GIF
D:\KENNETH FILES\SYSTEM\SERENDIPITY\SERENDIPITY-CMS\CMS_OFFLINE_04.17.15\RESOURCES\ENVELOPE1.GIF
D:\KENNETH FILES\SYSTEM\SERENDIPITY\SERENDIPITY-CMS\CMS_OFFLINE_04.17.15\RESOURCES\TRASHCAN_EMPTY.PNG
D:\KENNETH FILES\SYSTEM\SERENDIPITY\SERENDIPITY-CMS\CMS_OFFLINE_04.17.15\RESOURCES\SEARCH4PEOPLE.ICO
D:\KENNETH FILES\SYSTEM\SERENDIPITY\SERENDIPITY-CMS\CMS_OFFLINE_04.17.15\RESOURCES\SIGNATURE.PNG
D:\KENNETH FILES\SYSTEM\SERENDIPITY\SERENDIPITY-CMS\CMS_OFFLINE_04.17.15\RESOURCES\DOWN.ICO
D:\KENNETH FILES\SYSTEM\SERENDIPITY\SERENDIPITY-CMS\CMS_OFFLINE_04.17.15\RESOURCES\ENVELOPES1.GIF
D:\KENNETH FILES\SYSTEM\SERENDIPITY\SERENDIPITY-CMS\CMS_OFFLINE_04.17.15\RESOURCES\PRINTER.GIF
D:\KENNETH FILES\SYSTEM\SERENDIPITY\SERENDIPITY-CMS\CMS_OFFLINE_04.17.15\RESOURCES\FIND.GIF
D:\KENNETH FILES\SYSTEM\SERENDIPITY\SERENDIPITY-CMS\CMS_OFFLINE_04.17.15\RESOURCES\ORGANIZATION.ICO
D:\KENNETH FILES\SYSTEM\SERENDIPITY\SERENDIPITY-CMS\CMS_OFFLINE_04.17.15\RESOURCES\KFOULEGGS.PNG
D:\KENNETH FILES\SYSTEM\SERENDIPITY\SERENDIPITY-CMS\CMS_OFFLINE_04.17.15\RESOURCES\MOLESKINE_GREEN.PNG
D:\KENNETH FILES\SYSTEM\SERENDIPITY\SERENDIPITY-CMS\CMS_OFFLINE_04.17.15\RESOURCES\FIND4.GIF
D:\KENNETH FILES\SYSTEM\SERENDIPITY\SERENDIPITY-CMS\CMS_OFFLINE_04.17.15\RESOURCES\MSN.PNG
D:\KENNETH FILES\SYSTEM\SERENDIPITY\SERENDIPITY-CMS\CMS_OFFLINE_04.17.15\RESOURCES\ALERT24.PNG
D:\KENNETH FILES\SYSTEM\SERENDIPITY\SERENDIPITY-CMS\CMS_OFFLINE_04.17.15\RESOURCES\LOADING2.GIF
D:\KENNETH FILES\SYSTEM\SERENDIPITY\SERENDIPITY-CMS\CMS_OFFLINE_04.17.15\RESOURCES\WBBUT017.GIF
D:\KENNETH FILES\SYSTEM\SERENDIPITY\SERENDIPITY-CMS\CMS_OFFLINE_04.17.15\RESOURCES\CAL.PNG
D:\KENNETH FILES\SYSTEM\SERENDIPITY\SERENDIPITY-CMS\CMS_OFFLINE_04.17.15\RESOURCES\PERCENT.ICO
D:\KENNETH FILES\SYSTEM\SERENDIPITY\SERENDIPITY-CMS\CMS_OFFLINE_04.17.15\RESOURCES\LISTS.PNG
D:\KENNETH FILES\SYSTEM\SERENDIPITY\SERENDIPITY-CMS\CMS_OFFLINE_04.17.15\RESOURCES\SEARCH.PNG
D:\KENNETH FILES\SYSTEM\SERENDIPITY\SERENDIPITY-CMS\CMS_OFFLINE_04.17.15\RESOURCES\BRIEFCASE_BLUE.GIF
D:\KENNETH FILES\SYSTEM\SERENDIPITY\SERENDIPITY-CMS\CMS_OFFLINE_04.17.15\RESOURCES\WINDOW_NEW.ICO
D:\KENNETH FILES\SYSTEM\SERENDIPITY\SERENDIPITY-CMS\CMS_OFFLINE_04.17.15\RESOURCES\BUTTON_OK.PNG
D:\KENNETH FILES\SYSTEM\SERENDIPITY\SERENDIPITY-CMS\CMS_OFFLINE_04.17.15\RESOURCES\ORDER.ICO
D:\KENNETH FILES\SYSTEM\SERENDIPITY\SERENDIPITY-CMS\CMS_OFFLINE_04.17.15\RESOURCES\IMAGES (47).JPG
^D:\KENNETH FILES\SYSTEM\SERENDIPITY\SERENDIPITY-CMS\CMS_OFFLINE_04.17.15\MEMBERSHIP SYSTEM\MASTERFILES\FRMORGCHART_MASTER.RESX
^D:\KENNETH FILES\SYSTEM\SERENDIPITY\SERENDIPITY-CMS\CMS_OFFLINE_04.17.15\UNSORTED FORMS\FRMPAYROLL_ SCHEDULE.RESX
^D:\KENNETH FILES\SYSTEM\SERENDIPITY\SERENDIPITY-CMS\CMS_OFFLINE_04.17.15\MEMBERSHIP SYSTEM\TRANSACTIONS\PAYROLLINTEGRATOR\FRMDOWNLOADEDPAYROLL_DELETE.RESX
^D:\KENNETH FILES\SYSTEM\SERENDIPITY\SERENDIPITY-CMS\CMS_OFFLINE_04.17.15\UNSORTED FORMS\FRMEMPLOYEE_RATETYPE.RESX
^D:\KENNETH FILES\SYSTEM\SERENDIPITY\SERENDIPITY-CMS\CMS_OFFLINE_04.17.15\UNSORTED FORMS\FRMEMPLOYEE_SALARYGRADE.RESX
^D:\KENNETH FILES\SYSTEM\SERENDIPITY\SERENDIPITY-CMS\CMS_OFFLINE_04.17.15\UNSORTED FORMS\FRMEMPLOYEE_TAXCODE.RESX
C:\WINDOWS\MICROSOFT.NET\FRAMEWORK\V2.0.50727\CONFIG\SECURITY.CONFIG
C:\WINDOWS\MICROSOFT.NET\FRAMEWORK\V2.0.50727\CONFIG\ENTERPRISESEC.CONFIG
